﻿{
  "iisSettings": {
    "windowsAuthentication": false, 
    "anonymousAuthentication": true, 
    "iisExpress": {
      "applicationUrl": "http://localhost:49511",
      "sslPort": 0
    }
  },
  "profiles": {
    "IIS Express": {
      "commandName": "IISExpress",
      "launchBrowser": true,
      "environmentVariables": {
       "ASPNETCORE_ENVIRONMENT": "Development",
        //Part 9 : Our key value in envoronment , and it will override all privious values of key 
        //If same key executes from command line argument then all valus from all file for that key will be overridden , Run CMD with command : dotnet run MyKey="This is frm command line" and it will override all values 
        "MyKey": "my value from environment variable"
      }
    },
    "ASPCoreTutorial1": {
      "commandName": "Project",
      "launchBrowser": true,
      "applicationUrl": "http://localhost:5000",
      "environmentVariables": {
        "ASPNETCORE_ENVIRONMENT": "Development"
      }
    }
  }
}